<svg width="863" height="501" viewBox="0 0 863 501" fill="none" xmlns="http://www.w3.org/2000/svg">
<rect y="1" width="863" height="500" fill="url(#paint0_linear)"/>
<path d="M635.491 56L863 72V0H419C452.052 40.4 511.73 50.1667 537.437 50L635.491 56Z" fill="white"/>
<path d="M658.712 28.1681C658.712 28.7731 658.764 29.3781 658.868 29.9832C658.946 30.4622 659.128 30.9412 659.415 31.3445C659.701 31.7227 660.065 32.0252 660.508 32.2017C661.106 32.4286 661.731 32.5294 662.355 32.5042C662.85 32.5042 663.318 32.4538 663.787 32.3277C664.255 32.1765 664.645 31.9244 664.958 31.5714L666.285 32.7563C665.79 33.2857 665.166 33.6891 664.489 33.9412C663.813 34.1933 663.084 34.2941 662.355 34.2941C661.471 34.3193 660.586 34.1681 659.753 33.8403C659.076 33.563 658.452 33.1344 657.983 32.605C657.515 32.0504 657.177 31.3949 656.968 30.6891C656.734 29.8823 656.63 29.0504 656.656 28.2185V27.5882C656.656 26.8067 656.76 26 657.046 25.2689C657.281 24.6134 657.645 24.0084 658.139 23.5294C658.634 23.0504 659.258 22.6723 659.935 22.4454C660.716 22.1933 661.549 22.042 662.381 22.0672C663.084 22.0672 663.813 22.1933 664.489 22.4202C665.166 22.647 665.79 23.0252 666.285 23.5294L664.958 24.8403C664.645 24.5126 664.229 24.2605 663.787 24.084C663.344 23.9328 662.876 23.8823 662.407 23.8823C661.158 23.8823 660.221 24.2101 659.649 24.8403C659.076 25.4706 658.764 26.4286 658.764 27.6386L658.712 28.1681Z" fill="#6B7D7F"/>
<path d="M672.296 29.6804C672.166 29.5291 672.01 29.4031 671.802 29.3526C671.62 29.277 671.412 29.2518 671.203 29.2518H670.032V34.1173H668.054V22.2686H673.832C674.326 22.2686 674.795 22.3442 675.263 22.5207C675.679 22.672 676.07 22.8989 676.382 23.2014C676.694 23.5039 676.955 23.8821 677.111 24.2602C677.293 24.714 677.371 25.1678 677.371 25.6468C677.423 26.5543 677.137 27.4367 676.564 28.1678C675.992 28.8232 675.159 29.2266 674.274 29.2518L676.59 32.1005C676.72 32.277 676.903 32.4283 677.111 32.5543C677.319 32.63 677.553 32.6552 677.787 32.6552V34.1173C677.657 34.1678 677.501 34.2182 677.371 34.2686C677.215 34.319 677.059 34.319 676.903 34.319C676.564 34.319 676.2 34.193 675.94 33.9661C675.679 33.7392 675.419 33.5123 675.211 33.235L672.296 29.6804ZM670.032 27.4619H673.337C674.092 27.4619 674.612 27.3358 674.925 27.0585C675.237 26.7812 675.393 26.3274 675.393 25.6468C675.419 25.193 675.289 24.7644 674.977 24.4367C674.691 24.1846 674.222 24.0333 673.572 24.0333H670.058V27.4619H670.032Z" fill="#6B7D7F"/>
<path d="M688.561 34.0926H679.609V22.2438H688.613L688.015 24.0337H681.587V26.9077H687.442V28.7228H681.587V32.3026H688.561V34.0926Z" fill="#6B7D7F"/>
<path d="M696.238 34.0927H690.461V22.244H696.212C696.993 22.2188 697.774 22.37 698.45 22.723C699.049 23.0255 699.543 23.4541 699.934 23.9835C700.324 24.5381 700.584 25.1684 700.714 25.8238C700.871 26.5297 700.949 27.2608 700.949 27.9919C700.949 28.7482 700.871 29.5045 700.74 30.2608C700.636 30.9415 700.376 31.6221 700.012 32.202C699.647 32.7818 699.153 33.2356 698.581 33.5633C697.852 33.9415 697.045 34.1179 696.238 34.0927ZM692.439 32.2776H695.614C696.186 32.3028 696.785 32.1768 697.305 31.9247C697.696 31.6978 698.034 31.37 698.268 30.9667C698.502 30.5381 698.659 30.0591 698.711 29.5801C698.789 29.0507 698.815 28.5213 698.815 27.9667C698.815 27.4625 698.789 26.9583 698.685 26.4541C698.607 26.0003 698.45 25.5717 698.216 25.1936C697.982 24.8406 697.644 24.5381 697.227 24.3364C696.733 24.1095 696.16 23.9835 695.588 24.0087H692.413L692.439 32.2776Z" fill="#6B7D7F"/>
<path d="M704.722 22.2438H702.744V34.0926H704.722V22.2438Z" fill="#6B7D7F"/>
<path d="M708.6 28.1681C708.6 28.7731 708.652 29.3781 708.756 29.9832C708.834 30.4622 709.016 30.9412 709.302 31.3445C709.589 31.7227 709.953 32.0252 710.421 32.2017C711.02 32.4286 711.644 32.5294 712.269 32.5042C712.737 32.5042 713.232 32.4538 713.7 32.3277C714.169 32.1765 714.559 31.9244 714.871 31.5714L716.199 32.7563C715.704 33.2857 715.08 33.6891 714.403 33.9412C713.726 34.1933 712.998 34.2941 712.269 34.2941C711.384 34.3193 710.473 34.1681 709.667 33.8403C708.99 33.563 708.365 33.1344 707.897 32.605C707.429 32.0504 707.09 31.3949 706.882 30.6891C706.648 29.8823 706.544 29.0504 706.57 28.2185V27.5882C706.57 26.8067 706.674 26 706.96 25.2689C707.194 24.6134 707.559 24.0084 708.079 23.5294C708.574 23.0504 709.198 22.6723 709.875 22.4454C710.656 22.1933 711.488 22.042 712.321 22.0672C713.024 22.0672 713.726 22.1933 714.403 22.4202C715.08 22.647 715.704 23.0252 716.199 23.5294L714.871 24.8403C714.559 24.5126 714.143 24.2605 713.7 24.084C713.258 23.9328 712.79 23.8823 712.321 23.8823C711.072 23.8823 710.135 24.2101 709.563 24.8403C708.99 25.4706 708.678 26.4286 708.678 27.6386L708.6 28.1681Z" fill="#6B7D7F"/>
<path d="M723.511 34.2944C722.626 34.3196 721.742 34.1683 720.909 33.8406C720.206 33.5633 719.556 33.1347 719.061 32.5801C718.567 32.0255 718.176 31.3448 717.942 30.6389C717.682 29.8322 717.552 29.0003 717.552 28.1683V27.7146C717.552 26.9331 717.682 26.1515 717.994 25.4204C718.28 24.7398 718.697 24.1347 719.217 23.6305C719.764 23.1263 720.388 22.723 721.091 22.4709C722.626 21.9162 724.344 21.9162 725.879 22.4709C726.582 22.723 727.207 23.1263 727.753 23.6305C728.274 24.1347 728.69 24.7398 728.976 25.4204C729.289 26.1515 729.419 26.9331 729.419 27.7146V28.1683C729.419 29.0003 729.289 29.8322 729.054 30.6389C728.82 31.3448 728.456 32.0255 727.935 32.5801C727.415 33.1347 726.79 33.5633 726.088 33.8406C725.255 34.1431 724.396 34.3196 723.511 34.2944ZM723.511 23.807C722.21 23.807 721.247 24.1599 720.597 24.8658C719.946 25.5717 719.608 26.5297 719.608 27.7146V28.1179C719.608 28.6978 719.66 29.2776 719.79 29.8574C719.894 30.3616 720.128 30.8406 720.44 31.244C720.753 31.6473 721.169 31.9499 721.638 32.1767C722.21 32.4288 722.835 32.5297 723.459 32.5045C724.11 32.5297 724.734 32.4288 725.333 32.202C725.801 32.0003 726.218 31.6978 726.53 31.2944C726.842 30.891 727.05 30.412 727.181 29.9078C727.311 29.328 727.389 28.723 727.363 28.1179V27.7398C727.363 26.5549 727.051 25.5969 726.374 24.891C725.697 24.1852 724.786 23.8322 723.511 23.807Z" fill="#6B7D7F"/>
<path d="M735.43 29.6804C735.3 29.5291 735.144 29.4031 734.936 29.3526C734.754 29.277 734.545 29.2518 734.337 29.2518H733.166V34.1173H731.188V22.2686H736.966C737.46 22.2686 737.928 22.3442 738.397 22.5207C738.813 22.672 739.204 22.8989 739.516 23.2266C739.828 23.5291 740.088 23.9073 740.245 24.2854C740.427 24.7392 740.505 25.193 740.505 25.672C740.557 26.5795 740.271 27.4619 739.698 28.193C739.126 28.8484 738.293 29.2518 737.408 29.277L739.75 32.1005C739.88 32.277 740.062 32.4283 740.271 32.5543C740.479 32.63 740.713 32.6552 740.947 32.6552V34.1173C740.817 34.1678 740.661 34.2182 740.531 34.2686C740.375 34.2938 740.219 34.319 740.062 34.319C739.724 34.319 739.386 34.193 739.126 33.9661C738.865 33.7392 738.605 33.5123 738.397 33.235L735.43 29.6804ZM733.166 27.4619H736.445C737.2 27.4619 737.72 27.3358 738.033 27.0585C738.345 26.7812 738.501 26.3274 738.501 25.6468C738.527 25.193 738.397 24.7644 738.085 24.4367C737.798 24.1846 737.33 24.0333 736.653 24.0333H733.14V27.4619H733.166Z" fill="#6B7D7F"/>
<path d="M742.743 34.0926V22.2438H748.806C749.327 22.2438 749.847 22.3195 750.342 22.5211C750.758 22.6976 751.149 22.9497 751.461 23.2774C751.773 23.6052 751.981 24.0085 752.138 24.4371C752.294 24.9161 752.372 25.4203 752.372 25.9245C752.372 26.4539 752.294 26.9581 752.164 27.4623C752.033 27.9161 751.799 28.3194 751.513 28.6976C751.227 29.0505 750.836 29.3279 750.42 29.5043C749.926 29.706 749.405 29.8068 748.859 29.8068H744.799V34.0926H742.743ZM744.747 24.0085V27.9917H748.13C748.911 27.9917 749.457 27.8152 749.821 27.4875C750.186 27.1598 750.368 26.6304 750.368 25.8993C750.368 25.1682 750.186 24.7396 749.795 24.4371C749.405 24.1346 748.859 23.9833 748.13 23.9833H744.747V24.0085Z" fill="#6B7D7F"/>
<path d="M759.554 34.0923C756.379 34.0923 753.959 31.9998 753.959 27.8402C753.959 23.6805 756.379 21.5881 759.554 21.5881C761.298 21.5881 762.391 22.0418 763.718 23.4032L762.469 24.5376C761.506 23.5292 760.777 23.1763 759.58 23.1763C758.435 23.1259 757.316 23.6553 756.666 24.5629C756.067 25.3696 755.833 26.3024 755.833 27.8402C755.833 29.378 756.067 30.336 756.666 31.1175C757.342 32.025 758.435 32.5545 759.58 32.504C760.777 32.504 761.532 32.1259 762.469 31.1175L763.718 32.2771C762.391 33.6385 761.298 34.0923 759.554 34.0923Z" fill="#9FA9AB"/>
<path d="M788.415 33.9414V21.7145H790.262V33.9414H788.415Z" fill="#9FA9AB"/>
<path d="M796.742 33.9412C794.582 33.9412 793.515 32.479 793.515 30.6639V23.1765H791.928V21.7899H793.515V17.7311L795.363 17.2017V21.7899H798.044V23.1765H795.363V30.6135C795.363 31.7227 795.91 32.4034 797.081 32.4034H798.044V33.9412H796.742Z" fill="#9FA9AB"/>
<path d="M814.308 33.9412C812.096 33.9412 811.107 32.5547 811.107 30.6891V17.7311L812.955 17.2017V30.6135C812.955 31.7983 813.372 32.4034 814.647 32.4034H815.636V33.9412H814.308Z" fill="#9FA9AB"/>
<path d="M790.288 17.2017H788.389V19.042H790.288V17.2017Z" fill="#9FA9AB"/>
<path d="M785.032 22.6221C784.355 21.9666 783.236 21.5633 781.961 21.5633C780.582 21.5633 779.41 21.8658 778.396 23.1515C778.343 22.9246 778.265 22.6977 778.161 22.4708C778.057 22.2439 777.953 22.0423 777.849 21.8406L776.027 22.6725C776.366 23.3532 776.548 24.1095 776.548 24.891V37.975H778.396V32.5044C779.436 33.765 780.582 34.0927 781.961 34.0927C783.236 34.0927 784.381 33.6641 785.032 33.0339C786.307 31.7986 786.567 29.7565 786.567 27.8406C786.567 25.9246 786.333 23.8826 785.032 22.6221ZM781.57 32.5044C778.838 32.5044 778.396 30.2103 778.396 27.8406C778.396 25.4708 778.838 23.1767 781.57 23.1767C784.303 23.1767 784.719 25.4456 784.719 27.8406C784.719 30.2355 784.329 32.5044 781.57 32.5044Z" fill="#9FA9AB"/>
<path d="M774.908 32.6809C774.804 32.3028 774.778 31.9246 774.752 31.5465V25.6473C774.752 22.975 773.087 21.5633 769.704 21.5633C767.648 21.5633 766.373 21.9666 765.254 23.3784L766.503 24.4876C767.257 23.4792 768.064 23.1011 769.678 23.1011C771.994 23.1011 772.905 24.0086 772.905 25.7734V26.933H769.105C766.294 26.933 764.733 28.3196 764.733 30.4624C764.707 31.37 765.045 32.2776 765.696 32.933C766.477 33.7397 767.518 34.0423 769.261 34.0423C770.953 34.0423 771.864 33.7145 772.905 32.7313C772.931 32.9078 772.957 33.0843 773.009 33.2607C773.061 33.4876 773.165 33.6893 773.295 33.891H775.403C775.195 33.5381 775.012 33.1347 774.908 32.6809ZM769.443 32.5549C767.44 32.5549 766.555 31.8742 766.555 30.4624C766.555 29.0507 767.466 28.2944 769.365 28.2944H772.905V29.6053C772.905 30.6137 772.696 31.3196 772.254 31.7229C771.473 32.4792 770.51 32.5549 769.443 32.5549Z" fill="#9FA9AB"/>
<path d="M809.52 32.6809C809.416 32.3028 809.39 31.9246 809.39 31.5465V25.6473C809.39 22.975 807.724 21.5633 804.341 21.5633C802.285 21.5633 801.01 21.9666 799.865 23.3784L801.114 24.4876C801.869 23.4792 802.676 23.1011 804.289 23.1011C806.605 23.1011 807.516 24.0086 807.516 25.7734V26.933H803.717C800.906 26.933 799.345 28.3196 799.345 30.4624C799.319 31.37 799.657 32.2776 800.282 32.933C801.088 33.7397 802.103 34.0423 803.847 34.0423C805.538 34.0423 806.449 33.7145 807.49 32.7313C807.516 32.9078 807.542 33.0843 807.594 33.2607C807.646 33.4876 807.75 33.7145 807.881 33.891H809.989C809.806 33.5381 809.624 33.1347 809.52 32.6809ZM804.055 32.5549C802.051 32.5549 801.166 31.8742 801.166 30.4624C801.166 29.0507 802.077 28.2944 803.977 28.2944H807.516V29.6053C807.516 30.6137 807.308 31.3196 806.866 31.7229C806.085 32.4792 805.148 32.5549 804.055 32.5549Z" fill="#9FA9AB"/>
<path d="M639.819 34.6219H626V21.1597L639.819 34.6219Z" fill="#D08300"/>
<path d="M626 21.1597L639.819 34.6219H650.593L626 21.1597Z" fill="#C16022"/>
<path d="M626 34.6217H639.819L632.714 27.6889L626 34.6217Z" fill="#B57818"/>
<path d="M643.098 17L634.536 25.8235L650.593 34.6218H656.656L643.098 17Z" fill="#C0C9CD"/>
<path d="M626 21.1597L632.714 27.6891L634.536 25.8235L626 21.1597Z" fill="#B57818"/>
<path d="M632.714 27.6893L639.819 34.6221H650.592L634.536 25.8238L632.714 27.6893Z" fill="#83601B"/>
<path d="M656.656 34.6218H650.593L643.098 17L656.656 34.6218Z" fill="#6B7D7F"/>
<defs>
<linearGradient id="paint0_linear" x1="372.5" y1="432.5" x2="372.5" y2="-28.5" gradientUnits="userSpaceOnUse">
<stop stop-color="#3A3B3D"/>
<stop offset="1" stop-color="#707172"/>
</linearGradient>
</defs>
</svg>
