<svg width="32" height="32" viewBox="0 0 32 32" fill="none" xmlns="http://www.w3.org/2000/svg">
<rect width="32" height="32" rx="4" fill="#B33828"/>
<path d="M25.6544 11.4129C25.4095 10.2684 24.5396 9.42404 23.4922 9.29808C21.0121 9.00018 18.5019 8.99863 16.0032 9.00018C13.5041 8.99863 10.9934 9.00018 8.51334 9.29808C7.46663 9.42404 6.59726 10.2684 6.35241 11.4129C6.00392 13.0428 6 14.822 6 16.5001C6 18.1782 6 19.9572 6.34849 21.5868C6.59293 22.7311 7.4625 23.5755 8.50983 23.7017C10.9897 23.9998 13.5002 24.0014 15.9993 23.9998C18.4988 24.0014 21.0086 23.9998 23.4883 23.7017C24.535 23.5757 25.4052 22.7314 25.6501 21.5868C25.9988 19.957 26 18.178 26 16.5001C26 14.822 26.0029 13.0428 25.6544 11.4129ZM13.419 19.8403C13.419 17.4598 13.419 15.1041 13.419 12.7234C15.5387 13.9134 17.6443 15.0955 19.7773 16.2928C17.6509 17.4796 15.5443 18.6545 13.419 19.8403Z" fill="white"/>
</svg>
