<svg width="34" height="38" viewBox="0 0 34 38" fill="none" xmlns="http://www.w3.org/2000/svg">
<path d="M30.3335 3.99996H28.6668V0.666626H25.3335V3.99996H8.66683V0.666626H5.3335V3.99996H3.66683C1.8335 3.99996 0.333496 5.49996 0.333496 7.33329V34C0.333496 35.8333 1.8335 37.3333 3.66683 37.3333H30.3335C32.1668 37.3333 33.6668 35.8333 33.6668 34V7.33329C33.6668 5.49996 32.1668 3.99996 30.3335 3.99996ZM30.3335 34H3.66683V12.3333H30.3335V34Z" fill="#EA6752"/>
</svg>
