<svg width="40" height="40" viewBox="0 0 40 40" fill="none" xmlns="http://www.w3.org/2000/svg">
<circle cx="20" cy="20" r="20" fill="#BECDCD"/>
<path d="M20 27L11.3397 15.75L28.6603 15.75L20 27Z" fill="#141C2E"/>
</svg>
