<svg width="104" height="104" viewBox="0 0 104 104" fill="none" xmlns="http://www.w3.org/2000/svg">
<path d="M52 104C80.7188 104 104 80.7188 104 52C104 23.2812 80.7188 0 52 0C23.2812 0 0 23.2812 0 52C0 80.7188 23.2812 104 52 104Z" fill="#7AA2D6"/>
<!-- <path d="M95.5508 23.6434L49.563 71.2563L49.6443 76.375H51.7568L101.563 36.2372C100.101 31.7686 98.0695 27.4623 95.5508 23.6434Z" fill="#AED1F0"/> -->
<path d="M103.025 21.3696L93.8441 12.2695C92.6252 11.0506 90.594 11.0506 89.2941 12.2695L50.0501 52.8134L33.0687 36.0759C31.8499 34.8571 29.8186 34.8571 28.5187 36.0759L20.3936 44.1197C19.1748 45.3385 19.1748 47.3698 20.3936 48.5886L47.5313 75.4823C48.2627 76.2136 49.2377 76.4573 50.2126 76.376C51.1876 76.4573 52.1626 76.2134 52.8939 75.4823L103.025 25.9195C104.244 24.6194 104.244 22.5882 103.025 21.3696Z" fill="#FFF"/>
<path d="M52.8942 75.4817L103.026 25.9189C104.245 24.7001 104.245 22.6688 103.026 21.45L101.563 20.0688L50.1316 70.6066L21.694 42.9003L20.4752 44.1191C19.2563 45.3379 19.2563 47.3692 20.4752 48.588L47.6129 75.4819C48.3442 76.2132 49.3192 76.4568 50.2942 76.3756C51.1879 76.4566 52.1628 76.213 52.8942 75.4817Z" fill="#8F9C9D"/>
</svg>
