{
  "txt_navbar": {
    "search_placeholder": "Buscar compañías, expositores y conferencias",
    "search_placeholder_en": "Search for companies, speakers, conferences"
  },
  "txt_menu": {
    "btn_meet": "En vivo",
    "btn_meet_en": "Live"
  },
  "txt_schedule": {
    "lbl_toschedule": "Agendar",
    "lbl_toschedule_en": "Schedule",
    "lbl_toschedule_calendar": "Agendado",
    "lbl_toschedule_calendar_en": "Scheduled",
    "lbl_toschedule_register": "Registrarse",
    "lbl_toschedule_register_en": "Check in",
    "btn_meet": "Ver el En Vivo",
    "btn_meet_en": "See conference",
    "btn_clean": "Limpiar",
    "btn_clean_en": "Clean",
    "btn_toschedule": "Agendar conferencias",
    "btn_toschedule_en": "Schedule conferences"
  },
  "txt_agenda": {
    "lbl_title": "Mi agenda",
    "lbl_title_en": "My agenda",
    "search_placeholder": "Buscar en mi agenda",
    "search_placeholder_en": "Search in my agenda",
    "lbl_event": "Empieza a las",
    "lbl_event_en": "Starts at",
    "lbl_city": "Hora Lima",
    "lbl_city_en": "Lima time",
    "btn_detail": "Ver detalles",
    "btn_detail_en": "See details",
    "btn_access": "Acceder",
    "btn_access_en": "To access"
  },
  "txt_calendar": {
    "lbl_description": "Para agendar las conferencias en su calendario, por favor seleccione una de las siguientes opciones",
    "lbl_description_en": "To schedule the conferences on your calendar, please select one of the following options",
    "lbl_google": "Calendario de Google/Gmail",
    "lbl_google_en": "Google/Gmail Calendar",
    "lbl_outlook": "Calendario de Outlook",
    "lbl_outlook_en": "Outlook Calendar",
    "lbl_import": "Agendar de forma manual",
    "lbl_import_en": "Schedule manually"
  },
  "txt_instructions": {
    "lbl_title": "Instrucciones para agendar",
    "lbl_title_en": "Instructions to remember",
    "lbl_description": "<p class='instruction'><strong>1. </strong><span>Hacer click en el botón “Agendar” que se encuentra a la derecha de cada conferencia.</span></p><p class='instruction'><strong>2. </strong><span>Aparecerá una ventana flotante en donde encontrará las alternativas de calendario en los que puede agendar las conferencias. Elija el de su preferencia y haga clic en “Continuar”.</span></p>",
    "lbl_description_en": "<p class='instruction'><strong>1. </strong><span>Click on the “Schedule” button to the right of each lecture.</span></p><p class='instruction'><strong>2. </strong><span>A pop-up window will appear showing the calendar options for you to schedule the lectures. Choose the one you prefer and click “Continue”.</span></p>",
    "lbl_note": "Nota: Puede que deba dar permisos para que queden agendadas las conferencias.",
    "lbl_note_en": "Note: Scheduling lectures may require your permission."
  },
  "txt_credicorp": {
    "lbl_about_us_title": "Quiénes somos",
    "lbl_about_us_title_en": "About us",
    "txt_about_us_title": "<p>Somos un holding dedicado a la prestación de servicios financieros con presencia en Colombia, Chile, Perú, Estados Unidos y Panamá. Contamos con el respaldo de Credicorp Ltd. (NYSE: BAP), el grupo financiero líder del Perú, con más de 130 años de historia. Ofrecemos servicios de Gestión Patrimonial, Asset Management, Finanzas Corporativas, Mercado de Capitales y Negocios Fiduciarios (en Colombia y Perú).</p><p>Contamos con un equipo regional, con profundo conocimiento de los mercados locales y enfoque en el cliente.Administramos activos por más de US$ 30 mil millones y, durante los últimos 5 años hemos gestionado transacciones por más de US$ 80,000 millones*</p><p>*Información al cierre del 2019.</p>"
  },
  "txtBanner": {
    "lblTitle": "INVESTOR",
    "lblTitle_en": "INVESTOR",
    "lblSubTitle": "CONFERENCE",
    "lblSubTitle_en": "CONFERENCE",
    "lblYear": "2021",
    "lblYear_en": "2021",
    "lblDescription": "Edición virtual",
    "lblDescription_en": "Virtual edition",
    "btn_meet": "Ver el En Vivo",
    "btn_meet_en": "Go to live"
  }
}
