[
  {
    "id": 1,
    "date": "2021-09-22",
    "date_string": "22 de Septiembre",
    "date_string_en": "September 22st",
    "date_string_large": "Miercoles 22 de septiembre",
    "date_string_large_en": "Wednesday September 22",
    "events": [
      {
        "id": 5,
        "title": "Presentación Ministro de Hacienda de Chile modif",
        "title_en": "Minister of Hacienda de Chile modif",
        "description": "",
        "date": "2021-09-22 15:00:00",
        "city": "lima",
        "type_id": 1,
        "diary_id": 1,
        "presentations": [
          {
            "id": "1",
            "name": "Documento texto.pdf"
          },
          {
            "id": "2",
            "name": "document.pdf"
          }
        ],
        "speakers": [
          {
            "name": "Expositor numero1",
            "photo": "assets/img/photo_user.jpg",
            "type_id": "1",
            "typepartipant": "speaker"
          },
          {
            "name": "Expositor numero2",
            "photo": "assets/img/photo_user.jpg",
            "type_id": "1",
            "typepartipant": "speaker"
          },
          {
            "name": "Expositor numero3",
            "photo": "assets/img/photo_user.jpg",
            "type_id": "1",
            "typepartipant": "speaker"
          }
        ],
        "moderator": [
          {
            "name": "Expositor numero4",
            "photo": "assets/img/photo_user.jpg",
            "type_id": "2",
            "typepartipant": "moderator"
          }
        ]
      }
    ]
  },
  {
    "id": 2,
    "date": "2021-09-25",
    "date_string": "25 de Septiembre",
    "date_string_en": "September 25st",
    "date_string_large": "Sabado 25 de septiembre",
    "date_string_large_en": "Saturday September 25",
    "events": [
      {
        "id": 6,
        "title": "Presentación Ministro de Hacienda de Chile",
        "title_en": "Minister of Hacienda de Chile",
        "description": "",
        "date": "2021-09-25 15:00:00",
        "city": "lima",
        "type_id": 1,
        "diary_id": 2,
        "presentations": [
          {
            "id": "3",
            "name": "Documento texto.pdf"
          },
          {
            "id": "4",
            "name": "document.pdf"
          }
        ],
        "speakers": [
          {
            "name": "Expositor numero1",
            "photo": "assets/img/photo_user.jpg",
            "type_id": "1",
            "typepartipant": "speaker"
          },
          {
            "name": "Expositor numero2",
            "photo": "assets/img/photo_user.jpg",
            "type_id": "1",
            "typepartipant": "speaker"
          },
          {
            "name": "Expositor numero3",
            "photo": "assets/img/photo_user.jpg",
            "type_id": "1",
            "typepartipant": "speaker"
          }
        ],
        "moderator": [
          {
            "name": "Expositor numero4",
            "photo": "assets/img/photo_user.jpg",
            "type_id": "2",
            "typepartipant": "moderator"
          }
        ]
      }
    ]
  },
  {
    "id": 3,
    "date": "2021-09-27",
    "date_string": "27 de Septiembre",
    "date_string_en": "September 27st",
    "date_string_large": "Lunes 27 de septiembre",
    "date_string_large_en": "Monday September 27",
    "events": [
      {
        "id": 7,
        "title": "Presentación Ministro de Hacienda de Peru",
        "title_en": "Minister of Hacienda de Peru",
        "description": "",
        "date": "2021-09-27 16:00:00",
        "city": "lima",
        "type_id": 1,
        "diary_id": 3,
        "presentations": [
          {
            "id": "5",
            "name": "Documento texto.pdf"
          },
          {
            "id": "6",
            "name": "document.pdf"
          }
        ],
        "speakers": [
          {
            "name": "Expositor numero1",
            "photo": "assets/img/photo_user.jpg",
            "type_id": "1",
            "typepartipant": "speaker"
          },
          {
            "name": "Expositor numero2",
            "photo": "assets/img/photo_user.jpg",
            "type_id": "1",
            "typepartipant": "speaker"
          },
          {
            "name": "Expositor numero3",
            "photo": "assets/img/photo_user.jpg",
            "type_id": "1",
            "typepartipant": "speaker"
          }
        ],
        "moderator": [
          {
            "name": "Expositor numero4",
            "photo": "assets/img/photo_user.jpg",
            "type_id": "2",
            "typepartipant": "moderator"
          }
        ]
      }
    ]
  }
]
